<svg width="16" height="18" viewBox="0 0 16 18" fill="none" xmlns="http://www.w3.org/2000/svg">
<path d="M12.75 0.416687L10.4167 2.50002C11.5 2.83335 12.5 3.41669 13.3333 4.16669C16.25 6.83335 16.25 11.1667 13.3333 13.8334C11.1667 15.8334 7.83333 17.0834 3.33333 17.5834L5.66667 15.5C4.58333 15.1667 3.58333 14.5834 2.75 13.8334C-0.166667 11.1667 -0.166667 6.83335 2.75 4.16669C4.83333 2.16669 8.16667 0.916687 12.75 0.416687ZM8 5.66669C5.91667 5.66669 4.25 7.16669 4.25 9.00002C4.25 10.8334 5.91667 12.3334 8 12.3334C10.0833 12.3334 11.75 10.8334 11.75 9.00002C11.75 7.16669 10.0833 5.66669 8 5.66669Z" fill="#0F1218"/>
</svg>
